// Jest Snapshot v1, https://goo.gl/fbAQLP

exports[`Checkbox should render correctly  1`] = `
<Fragment>
  <input
    checked={false}
    onChange={[Function]}
    type="checkbox"
  />
   
</Fragment>
`;

exports[`Checkbox should render correctly and trigger onChange 1`] = `
<Fragment>
  <input
    checked={false}
    className="m-5"
    onChange={[Function]}
    type="checkbox"
  />
   
  Complete
</Fragment>
`;
