// Jest Snapshot v1, https://goo.gl/fbAQLP

exports[`Col should render correctly with size as sm-6 and className p-5 1`] = `
<div
  className="col-sm-6 p-5"
>
  content
</div>
`;

exports[`Col should render correctly with size as undefined and className undefined 1`] = `
<div
  className="col-sm-12"
>
  content
</div>
`;
