// Jest Snapshot v1, https://goo.gl/fbAQLP

exports[`Radio should render correctly  1`] = `
<Fragment>
  <input
    onClick={[Function]}
    type="radio"
  />
   
</Fragment>
`;

exports[`Radio should render correctly and trigger onClick 1`] = `
<Fragment>
  <input
    className="m-5"
    onClick={[Function]}
    type="radio"
  />
   
  Active
</Fragment>
`;
