// Jest Snapshot v1, https://goo.gl/fbAQLP

exports[`ToDoListItem should render correctly and trigger setToDo 1`] = `
<Row
  className="text-left todo-list-item-row"
>
  <Col
    size="sm-6"
  >
    buy milk
  </Col>
  <Col
    className="text-right"
    size="sm-6"
  >
    <Checkbox
      checked={false}
      onChange={[Function]}
    />
     Complete
  </Col>
</Row>
`;

exports[`ToDoListItem should render correctly for complete ToDo 1`] = `
<Row
  className="text-left todo-list-item-row"
>
  <Col
    size="sm-6"
  >
    <del>
      buy milk
    </del>
  </Col>
  <Col
    className="text-right"
    size="sm-6"
  >
    <Checkbox
      checked={true}
      onChange={[Function]}
    />
     Complete
  </Col>
</Row>
`;
