// Jest Snapshot v1, https://goo.gl/fbAQLP

exports[`ToDoFilterMenu should render correctly and trigger setToDo 1`] = `
<Row
  className="text-left todo-list-item-row"
>
  <Col
    key="filter-menu-all"
    size="sm-3"
  >
    <Radio
      checked={false}
      label="All"
      name="statusFilter"
      onClick={[Function]}
    />
  </Col>
  <Col
    key="filter-menu-complete"
    size="sm-5"
  >
    <Radio
      checked={true}
      label="Complete"
      name="statusFilter"
      onClick={[Function]}
    />
  </Col>
  <Col
    key="filter-menu-active"
    size="sm-4"
  >
    <Radio
      checked={false}
      label="Active"
      name="statusFilter"
      onClick={[Function]}
    />
  </Col>
</Row>
`;
